api_key      = '5FaF5F0KvPpDIC6Eoc1QEXGC3sXunGacdnD57SLx'
app_name     = 'TestApp.ipa'
app_path     = './TestApp.ipa'
run_name     = 'iOS Provisioning'
project_id   = 24993 
pool_id      = 21
kif          = ""


