AppThwack ID,Trellis ID,Device,Model,Serial Number,Carrier,Rack,Shelf,Color,IP,Hostname,Google Account,Notes
117,119,Asus EeePad Transformer Prime,Transformer Prime TF201,BCOKAS104763,OEM,1,1,R,192.168.1.21,thwacklab21,appthwack2@gmail.com,
1,3,Samsung Galaxy S (CM) (Vibrant),SGH-T959,38347AE721C000EC,T-Mobile,1,1,G,192.168.1.21,thwacklab21,appthwack2@gmail.com,
34,40,HTC Evo Shift 4G,PG06100,HT0CTHV01536,Sprint,1,1,B,192.168.1.21,thwacklab21,appthwack2@gmail.com,
183,186,HTC One X+,HTC One X+,HT2AYW301932,AT&T,1,1,Y,192.168.1.21,thwacklab21,appthwack2@gmail.com,
64,66,Samsung Intercept,SPH-M910,M910008926cd,Sprint,1,1,RR,192.168.1.21,thwacklab21,appthwack2@gmail.com,
98,100,Dell Streak 7,Dell Streak 7,28841424360e4d7,OEM,1,1,GG,192.168.1.21,thwacklab21,appthwack2@gmail.com,
184,188,Samsung Doubletime,SAMSUNG-SGH-I857,I85753c82e0e,AT&T,1,1,BB,192.168.1.21,thwacklab21,appthwack2@gmail.com,
140,142,Samsung Nexus 10,Nexus 10,R32CA04V87B,OEM,1,2,R,192.168.1.21,thwacklab21,appthwack2@gmail.com,
152,153,TA26902P7U,ST21a,YT9004J3DQ,OEM,1,2,G,192.168.1.21,thwacklab21,appthwack2@gmail.com,
178,181,Sony Xperia Miro,ST23i,YT9101NCMC,OEM,1,2,B,192.168.1.21,thwacklab21,appthwack2@gmail.com,
106,107,Amazon Kindle Fire HD,Amazon Kindle Fire HD,D025A0A023860MJU,OEM,1,2,Y,192.168.1.21,thwacklab21,appthwack2@gmail.com,
102,104,,LG Optimus Elite,A0000031D5A85B,Sprint,1,2,RR,192.168.1.21,thwacklab21,appthwack2@gmail.com,
150,154,Galaxy S Plus,GT-19001,0123456789ABCDEF,OEM,1,2,GG,192.168.1.21,thwacklab21,appthwack2@gmail.com,
181,183,Sony Xperia Ion,LT28at,CB5A1K4DDC,AT&T,1,2,BB,192.168.1.21,thwacklab21,appthwack2@gmail.com,
241,247,Asus Nexus 7 2.0,Nexus 7,06de3485,OEM,1,3,R,192.168.1.21,thwacklab21,appthwack2@gmail.com,
90,91,Samsung Infuse 4G,SGH-I997,I9972ade5419,AT&T,1,3,G,192.168.1.21,thwacklab21,appthwack2@gmail.com,
288,303,LG Lucid,VS840,LGOTMSc86f4c8,Verizon,1,3,B,192.168.1.21,thwacklab21,appthwack2@gmail.com,USB Mode: Network Connection (Ethernet)
269,283,Sony Xperia Tablet Z,SGP311,CB5A1S0S7P,OEM,1,3,Y,192.168.1.21,thwacklab21,appthwack2@gmail.com,
281,296,Motorola Moto X,XT1056,T063200Q92,Sprint,1,3,RR,192.168.1.21,thwacklab21,appthwack2@gmail.com,
147,151,Samsung Galaxy SIII Mini (S3),GT-I8190,4790045822f5bffa,OEM,1,3,GG,192.168.1.21,thwacklab21,appthwack2@gmail.com,
50,52,Samsung Vitality,SCH-R720,R720d6e19e5a,Cricket,1,3,BB,192.168.1.21,thwacklab21,appthwack2@gmail.com,
156,158,Lenovo Ideapad A1,,7DF000029EDC0000,OEM,1,4,R,192.168.1.21,thwacklab21,appthwack2@gmail.com,
157,159,Sony Ericsson Live with Walkman,WT19i,YT9001C82D,OEM,1,4,G,192.168.1.21,thwacklab21,appthwack2@gmail.com,
139,141,Sony Xperia S,LT26i,BX9037E688,OEM,1,4,B,192.168.1.21,thwacklab21,appthwack2@gmail.com,
113,116,Sony Ericsson Xperia Arc,LT15a,CB5A1E4K2X,OEM,1,4,Y,192.168.1.21,thwacklab21,appthwack2@gmail.com,
151,152,Amazon Kindle Fire HD 8.9,Amazon Kindle Fire HD 8.9,B0C9100424770U3D,OEM,1,4,RR,192.168.1.21,thwacklab21,appthwack2@gmail.com,
144,146,LG Optimus G,LG-LS970,LG-LS970-cb92e896,Sprint,1,4,GG,192.168.1.21,thwacklab21,appthwack2@gmail.com,
160,162,LG Nitro HD,LG-P930,LGOTMS1d13b5,AT&T,1,4,BB,192.168.1.21,thwacklab21,appthwack2@gmail.com,
118,120,LG Thrive,LG-P506,80A012702000957834,AT&T,1,5,R,192.168.1.18,thwacklab18,appthwack1@gmail.com,
223,227,Samsung Galaxy Smart,SGH-T589,T5895cd98d77,T-Mobile,1,5,G,192.168.1.18,thwacklab18,appthwack1@gmail.com,
132,134,ZTE Warp,N860,ZTE_WarpC15A92,Boost Mobile,1,5,B,192.168.1.18,thwacklab18,appthwack1@gmail.com,
263,277,Samsung Galaxy Tab 3 8.0,SM-T310,4300b00740815007,OEM,1,5,Y,192.168.1.18,thwacklab18,appthwack1@gmail.com,
128,130,Motorola Spice,XT300,"""004000735197000000000000""",OEM,1,5,RR,192.168.1.18,thwacklab18,appthwack1@gmail.com,
130,132,Sony Ericsson Xperia Neo,MT15i,42583930324A36453134,Orange,1,5,GG,192.168.1.18,thwacklab18,appthwack1@gmail.com,
129,131,Samsung Galaxy Precedent,SCH-M828C,M828Cebe62eb7,Boost Mobile,1,5,BB,192.168.1.18,thwacklab18,appthwack1@gmail.com,
135,140,Acer Iconia A200,A200,20813586715,OEM,1,6,R,192.168.1.18,thwacklab18,appthwack1@gmail.com,
108,109,Sony Xperia Ray,ST18i,CB511UGUSX,OEM,1,6,G,192.168.1.18,thwacklab18,appthwack1@gmail.com,
112,114,Samsung Fascinate,SCH-I500,313435B3F5AB00EC,Verizon,1,6,B,192.168.1.18,thwacklab18,appthwack1@gmail.com,
120,121,ZTE Avail,ZTE-Z990,P736T,AT&T,1,6,Y,192.168.1.18,thwacklab18,appthwack1@gmail.com,
103,105,Samsung Galaxy Moment,SPH-M900,M90099270bf6,Sprint,1,6,RR,192.168.1.18,thwacklab18,appthwack1@gmail.com,
124,125,Samsung Galaxy Pro,GT-B7510,B7510c5356e26,Digitel,1,6,GG,192.168.1.18,thwacklab18,appthwack1@gmail.com,
185,189,Sony Xperia P,LT22i,YT9100ASAK,OEM,1,6,BB,192.168.1.18,thwacklab18,appthwack1@gmail.com,
222,226,Asus MeMO Pad,ME172V,QTCYFV70F30806D76,OEM,1,7,R,192.168.1.18,thwacklab18,appthwack1@gmail.com,
123,126,Motorola Backflip,MB300,TA538056B0,AT&T,1,7,G,192.168.1.18,thwacklab18,appthwack1@gmail.com,
134,136,HTC Legend,HTC Legend,SH07TNX00412,OEM,1,7,B,192.168.1.18,thwacklab18,appthwack1@gmail.com,
107,110,LG Optimus T,LG-P509,80A012409000577733,T-Mobile,1,7,Y,192.168.1.18,thwacklab18,appthwack1@gmail.com,
99,102,LG Ally,Ally,A000002158ED6A,Verizon,1,7,RR,192.168.1.18,thwacklab18,appthwack1@gmail.com,
97,97,Motorola DROID 4,DROID4,"""0154809104019011""",Verizon,1,7,GG,192.168.1.18,thwacklab18,appthwack1@gmail.com,
,,,,,,1,7,BB,192.168.1.18,thwacklab18,appthwack1@gmail.com,
136,138,Sony Tablet P,Sony Tablet P,450704643411357,AT&T,1,8,R,192.168.1.18,thwacklab18,appthwack1@gmail.com,
110,112,Samsung Transform Ultra,Samsung SPH-M930BST,M930107F0FB0,Boost Mobile,1,8,G,192.168.1.18,thwacklab18,appthwack1@gmail.com,
127,129,Samsung Galaxy Prevail,Samsung SPH-M820-BST,M82002388295,Boost Mobile,1,8,B,192.168.1.18,thwacklab18,appthwack1@gmail.com,
,,,,,OEM,1,8,Y,192.168.1.18,thwacklab18,appthwack1@gmail.com,
100,101,Motorola Citrus,WX445,35303736EA08090A,Verizon,1,8,RR,192.168.1.18,thwacklab18,appthwack1@gmail.com,
26,28,HTC MyTouch 4G,T-Mobile MyTouch 4G,SH17ZRM01509,T-Mobile,1,8,GG,192.168.1.18,thwacklab18,appthwack1@gmail.com,
25,27,Motorola Droid Pro,DROID Pro,0A3A98E40200A01E,Verizon,1,8,BB,192.168.1.18,thwacklab18,appthwack1@gmail.com,
72,74,LG Marquee,LG-LS855,A100001999CC86,Sprint,1,9,R,192.168.1.22,thwacklab22,appthwack1@gmail.com,
284,300,NVIDIA Shield,SHIELD,051331380342510661B4,OEM,1,9,G,192.168.1.22,thwacklab22,appthwack7@gmail.com,
287,302,Motorola Moto G,XT1034,TA880003XN,OEM,1,9,B,192.168.1.22,thwacklab22,appthwack7@gmail.com,
35,38,Samsung Replenish,SPH-M580,M58096061ebf,Sprint,1,9,Y,192.168.1.22,thwacklab22,appthwack7@gmail.com,
194,201,Samsung Galaxy Y (Web),GT-S5360,0123456789ABCDEF,OEM,1,9,RR,192.168.1.22,thwacklab22,appthwack7@gmail.com,
225,229,Sony Xperia Z,C6603,CB5A1Q5DCU,OEM,1,9,GG,192.168.1.22,thwacklab22,appthwack7@gmail.com,
244,246,Samsung Galaxy Tab 3 10.1,GT-P5210,430012025f675000,OEM,1,9,BB,192.168.1.22,thwacklab22,appthwack7@gmail.com,
285,301,Lenovo Yoga Tablet 10,ideapad b8000-f,KBDAKBWONNVCTGHM,OEM,1,10,R,192.168.1.22,thwacklab22,appthwack7@gmail.com,
270,284,LG Optimus LTE,LG-LU6200,LGOTMS6c0a0c0,OEM,1,10,G,192.168.1.22,thwacklab22,appthwack7@gmail.com,
109,111,Motorola Defy,MB525,0163D30C02011021,T-Mobile,1,10,B,192.168.1.22,thwacklab22,appthwack7@gmail.com,
154,156,Motorola Admiral,XT603,000000744ED980,Sprint,1,10,Y,192.168.1.22,thwacklab22,appthwack7@gmail.com,
165,185,Sony Experia Neo L,MT25i,BX903AJC82,OEM,1,10,RR,192.168.1.22,thwacklab22,appthwack7@gmail.com,
54,56,Samsung Galaxy S Stratosphere,SCH-I405,3833B91A66ED00EC,Verizon,1,10,GG,192.168.1.22,thwacklab22,appthwack7@gmail.com,
45,45,HTC Wildfire S,USCCADR6230US,HT1ADX001336,US Cellular,1,10,BB,192.168.1.22,thwacklab22,appthwack7@gmail.com,
237,243,Samsung Galaxy Note 8.0,GT-N5110,4103cf01e000406d,OEM,1,11,R,192.168.1.22,thwacklab22,appthwack7@gmail.com,
277,292,LG Nexus 5,Nexus 5,02bb410c08e4f474,OEM,1,11,G,192.168.1.22,thwacklab22,appthwack7@gmail.com,
48,50,Hauwei Ascend II,M865,84A8E4531D9B,Cricket,1,11,B,192.168.1.22,thwacklab22,appthwack7@gmail.com,
113,115,Sony Xperia Active,ST17i,CB5A1KN2ZD,OEM,1,11,Y,192.168.1.22,thwacklab22,appthwack7@gmail.com,
138,139,Sharp FX,SHARP-AD51,E710414838016,AT&T,1,11,RR,192.168.1.22,thwacklab22,appthwack7@gmail.com,
76,78,Sony Xperia Arc S,LT18a,BX90308BPT,OEM,1,11,GG,192.168.1.22,thwacklab22,appthwack7@gmail.com,
111,113,LG Swift,GT540,80A355614042659390,OEM,1,11,BB,192.168.1.22,thwacklab22,appthwack7@gmail.com,
91,93,LG Revolution 4G,VS910 4G,99000044223762,Verizon,1,12,R,192.168.1.22,thwacklab22,appthwack7@gmail.com,
143,145,Nexus 4,Nexus 4,0030d501598f611b,OEM,1,12,G,192.168.1.22,thwacklab22,appthwack7@gmail.com,
190,193,Samsung Galaxy SIII (S3) (Web),SCH-R530U,741aeb81,US Cellular,1,12,B,192.168.1.22,thwacklab22,appthwack7@gmail.com,
198,202,Droid Razr Maxx (Web),DROID RAZR MAXX,0A3D0F9B1300F00D,OEM,1,12,Y,192.168.1.22,thwacklab22,appthwack7@gmail.com,
272,287,Samsung Galaxy Note 3,SM-N900P,d87bb81d,Sprint,1,12,RR,192.168.1.22,thwacklab22,appthwack7@gmail.com,
4,5,HTC Evo 4G,PC36100,HT0CSHL05160,Sprint,1,12,GG,192.168.1.22,thwacklab22,appthwack7@gmail.com,
280,295,Sony Xperia ZL,C6502,EP7309233R,OEM,1,12,BB,192.168.1.22,thwacklab22,appthwack7@gmail.com,
,,,,,,,,,,,,
182,187,Samsung Galaxy Ace Plus,GT-S7500L,S7500826525de,OEM,2,1,G,192.168.1.13,thwacklab13,appthwack8@gmail.com,
46,48,Samsung Galaxy S Glide,SAMSUNG-SGH-I927,304d1f4933035a9e,AT&T,2,1,B,192.168.1.13,thwacklab13,appthwack8@gmail.com,
96,96,Samsung Galaxy Gio,GT-S5660,S56609229ba3e,OEM,2,1,Y,192.168.1.13,thwacklab13,appthwack8@gmail.com,
41,43,HTC Droid Eris,ADR6200,HT9AXHG04111,Verizon,2,1,RR,192.168.1.13,thwacklab13,appthwack8@gmail.com,
38,36,HTC Hero,Hero200,HT07BHF01209,Sprint,2,1,GG,192.168.1.13,thwacklab13,appthwack8@gmail.com,
75,77,Dell Aero,Dell Aero,354773040336855,OEM,2,1,BB,192.168.1.13,thwacklab13,appthwack8@gmail.com,
271,286,Kindle Fire HD 7,KFSOWI,00D20708339400E1,OEM,2,2,R,192.168.1.13,thwacklab13,appthwack8@gmail.com,
87,89,Samsung Droid Charge,SCH-I510,35316276F94500EC,Verizon,2,2,G,192.168.1.13,thwacklab13,appthwack8@gmail.com,
274,289,Lenovo IdeaPhone K900,Lenovo K900_ROW,Medfield6A95710E,OEM,2,2,B,192.168.1.13,thwacklab13,appthwack8@gmail.com,
88,90,LG Optimus V,VM670,A0000028EA073A,Virgin,2,2,Y,192.168.1.13,thwacklab13,appthwack8@gmail.com,
43,46,Samsung Acclaim,SCH-R880,S3C6410_Android,US Cellular,2,2,RR,192.168.1.13,thwacklab13,appthwack8@gmail.com,
58,60,HTC One X,HTC One X,HT25PW300543,AT&T,2,2,GG,192.168.1.13,thwacklab13,appthwack8@gmail.com,
265,279,Sony Xperia E,C1504,1196723b,OEM,2,2,BB,192.168.1.13,thwacklab13,appthwack8@gmail.com,
242,248,Asus Transformer Pad TF700T,tf700t,C7OKAS070197,OEM,2,3,R,192.168.1.13,thwacklab13,appthwack8@gmail.com,
206,209,Huawei Ascend Y,H866C,F83DFF484F39,OEM,2,3,G,192.168.1.13,thwacklab13,appthwack8@gmail.com,
21,22,HTC Status,HTC Status,HT17XVH02954,AT&T,2,3,B,192.168.1.13,thwacklab13,appthwack8@gmail.com,
161,163,HTC Droid DNA 4G LTE,HTC6435LVW,FA2BES503141,Verizon,2,3,Y,192.168.1.13,thwacklab13,appthwack8@gmail.com,
31,34,Motorola Flipout,MB511,04038F070900C01B,OEM,2,3,RR,192.168.1.13,thwacklab13,appthwack8@gmail.com,
49,51,Pantech Breakout,ADR8995,APACHE13111017188746,Verizon,2,3,GG,192.168.1.13,thwacklab13,appthwack8@gmail.com,
94,98,HTC Amaze 4G,HTC_Amaze_4G,SH1A6VP02268,T-Mobile,2,3,BB,192.168.1.13,thwacklab13,appthwack8@gmail.com,
19,21,ASUS EeePad Transformer TF101,Transformer TF101,028841c542413497,OEM,2,4,R,192.168.1.13,thwacklab13,appthwack8@gmail.com,
179,180,HTC One SV,One SV,HT2C4TP00459,OEM,2,4,G,192.168.1.13,thwacklab13,appthwack8@gmail.com,
162,164,HTC Vivid,HTC PH39100,HT1AEVJ02866,AT&T,2,4,B,192.168.1.13,thwacklab13,appthwack8@gmail.com,
133,135,LG G2X CM9,g2x cm9,0123456789ABCDEF,T-Mobile,2,4,Y,192.168.1.13,thwacklab13,appthwack8@gmail.com,
93,95,Samsung Galaxy Europa,GT-I5500,I55009c2a5db5,TIM,2,4,RR,192.168.1.13,thwacklab13,appthwack8@gmail.com,
42,44,Motorola Droid Razr,DROID RAZR,0A3BC15B1800F01A,OEM,2,4,GG,192.168.1.13,thwacklab13,appthwack8@gmail.com,
243,249,"Samsung Galaxy S II (S2, SII)",galaxy s ii,304D19FDA4406A6E,OEM,2,4,BB,192.168.1.13,thwacklab13,appthwack8@gmail.com,
203,206,Motorola Fire,XT532,DP2M4212203012,OEM,2,5,R,192.168.1.17,thwacklab17,appthwack3@gmail.com,
204,207,Sony Xperia J,ST26a,YT9005H0KW,OEM,2,5,G,192.168.1.17,thwacklab17,appthwack3@gmail.com,
159,161,HTC Rhyme,ADR6330VW,HT19NX103683,Verizon,2,5,B,192.168.1.17,thwacklab17,appthwack3@gmail.com,
206,213,HTC Desire A,HTC Desire A,HT16WRB01362,OEM,2,5,Y,192.168.1.17,thwacklab17,appthwack3@gmail.com,
209,211,Samsung Sidekick 4G,SGH-T839,T83920a8aeae,T-Mobile,2,5,RR,192.168.1.17,thwacklab17,appthwack3@gmail.com,
245,250,Samsung Galaxy Tab 3.0 7'',SM-T210R,41001515404a6000,OEM,2,5,GG,192.168.1.17,thwacklab17,appthwack3@gmail.com,
158,160,Samsung Galaxy Player 3.6,YP-GS1,2C220002FFFC0000,OEM,2,5,BB,192.168.1.17,thwacklab17,appthwack3@gmail.com,
142,144,Barnes & Noble Nook Tablet,BNTV250A,2020860013164014,OEM,2,6,R,192.168.1.17,thwacklab17,appthwack3@gmail.com,
37,39,Samsung Conquer 4G,SPH-D600,D60010C91003,Sprint,2,6,G,192.168.1.17,thwacklab17,appthwack3@gmail.com,
180,182,Motorola RAZR i,XT890,TA23704U8T,OEM,2,6,B,192.168.1.17,thwacklab17,appthwack3@gmail.com,
83,86,HTC Inspire 4G (Desire HD),HTC Inspire 4G,SH18XRX02168,AT&T,2,6,Y,192.168.1.17,thwacklab17,appthwack3@gmail.com,
62,64,Motorola Devour,A555,A555,Verizon,2,6,RR,192.168.1.17,thwacklab17,appthwack3@gmail.com,
57,59,HTC myTouch 3G Slide,T-Mobile myTouch 3G Slide,HT078PS01617,T-Mobile,2,6,GG,192.168.1.17,thwacklab17,appthwack3@gmail.com,
80,82,HTC Evo 3D,PG86100,HT17NHX06789,Sprint,2,6,BB,192.168.1.17,thwacklab17,appthwack3@gmail.com,
116,118,Sony Tablet S,Sony Tablet S,275501000035340,OEM,2,7,R,192.168.1.17,thwacklab17,appthwack3@gmail.com,
205,208,PCD Virgin Mobile Chaser,ADR2090,lGOTMS4f8215,Virgin,2,7,G,192.168.1.17,thwacklab17,appthwack3@gmail.com,
131,133,HTC One V,PK76300,HT26WX402578,OEM,2,7,B,192.168.1.17,thwacklab17,appthwack3@gmail.com,
122,124,Motorola Charm,MB502,0403854B0101B00D,T-Mobile,2,7,Y,192.168.1.17,thwacklab17,appthwack3@gmail.com,
115,117,Motorola Electrify,Motorola Electrify,TA21201CNO,US Cellular,2,7,RR,192.168.1.17,thwacklab17,appthwack3@gmail.com,
,362,Nexus 5 (Beta),Nexus 5,089fdf5c012a8b53,OEM,2,7,GG,192.168.1.17,thwacklab17,appthwack9@gmail.com,
202,205,Samsung Galaxy Rush,SPH-M830,b1bfee72,OEM,2,7,BB,192.168.1.17,thwacklab17,appthwack3@gmail.com,
39,41,Motorola DROID 3,DROID3,0A3BB5660D00E01D,OEM,2,8,R,192.168.1.17,thwacklab17,appthwack3@gmail.com,
125,127,HTC Aria,HTC Aria,HT0BNR001815,AT&T,2,8,G,192.168.1.17,thwacklab17,appthwack3@gmail.com,
,212,LG Optimus Logic,LGL35G,LGOTMS4f8215,OEM,2,8,B,192.168.1.17,thwacklab17,appthwack3@gmail.com,
59,61,Samsung Galaxy S2 Epic Touch 4G,SPH-D710,4641192101b8e89,Sprint,2,8,Y,192.168.1.17,thwacklab17,appthwack3@gmail.com,
92,94,Motorola Triumph,MOTWX435KT,FD1M1000190764,Virgin,2,8,RR,192.168.1.17,thwacklab17,appthwack3@gmail.com,
201,204,Samsung Galaxy Tab 2 7.0 (Web),GT-P3113,c0808425f214e21,OEM,2,8,GG,192.168.1.17,thwacklab17,appthwack3@gmail.com,
33,35,Kyocera Milano,C5120,a0000012b02fc6,Sprint,2,8,BB,192.168.1.17,thwacklab17,appthwack3@gmail.com,
15,17,T-Mobile myTouch 3g,T-Mobile myTouch 3G,SH96GP302693,T-Mobile,2,9,R,192.168.1.12,thwacklab12,appthwack4@gmail.com,
61,63,Sony Ericsson Xperia Play,R800x,4342354131434E593841,Verizon,2,9,G,192.168.1.12,thwacklab12,appthwack4@gmail.com,
264,,Samsung Galaxy S4 Mini,GT-i9192,400ca197,OEM,2,9,B,192.168.1.12,thwacklab12,appthwack4@gmail.com,
20,23,Samsung Galaxy Note,SAMSUNG-SGH-I717,df725e95,AT&T,2,9,Y,192.168.1.12,thwacklab12,appthwack4@gmail.com,Disable translate on Chrome
67,69,HTC Sensation 4G,HTC Sensation 4G,SH1CCT500416,T-Mobile,2,9,RR,192.168.1.12,thwacklab12,appthwack4@gmail.com,
276,291,Dell Venue 7,Dell Venue 7,DellVenue7000000965,OEM,2,9,GG,192.168.1.12,thwacklab12,appthwack4@gmail.com,
73,75,Samsung Galaxy S (Vibrant),SGH-T959,T959ba82bdb0,Sprint,2,9,BB,192.168.1.12,thwacklab12,appthwack4@gmail.com,
84,83,HTC Desire Z (G2),T-Mobile G2,HT09WR200853,T-Mobile,2,10,R,192.168.1.12,thwacklab12,appthwack4@gmail.com,
218,222,Samsung Galaxy S4,SAMSUNG-SGH-I337,618b27c5,AT&T,2,10,G,192.168.1.12,thwacklab12,appthwack4@gmail.com,
5,1,Samsung Galaxy Tab 10.1,GT-P7510,450718643FF73D7,OEM,2,10,B,192.168.1.12,thwacklab12,appthwack4@gmail.com,
82,85,Motorola Droid X2,DROID X2,TA054064TJ,Verizon,2,10,Y,192.168.1.12,thwacklab12,appthwack4@gmail.com,
11,9,Motorola Droid X,DROIDX,0A3A9FB20C00F021,Verizon,2,10,RR,192.168.1.12,thwacklab12,appthwack4@gmail.com,
63,65,Hauwei Mercury,M886,ACE87B399A74,Cricket,2,10,GG,192.168.1.12,thwacklab12,appthwack4@gmail.com,
104,106,LG Enlighten,LG-VS700,A000003103F154,,2,10,BB,192.168.1.12,thwacklab12,appthwack4@gmail.com,
7,6,HTC Droid Incredible,ADR6300,HT0CFHJ03775,Verizon,2,11,R,192.168.1.12,thwacklab12,appthwack4@gmail.com,
27,29,Acer Iconia Tab,A500,14119853215,OEM,2,11,G,192.168.1.12,thwacklab12,appthwack4@gmail.com,
53,54,Motorola XPRT,MB612,0A3A9C530202D02C,Sprint,2,11,B,192.168.1.12,thwacklab12,appthwack4@gmail.com,
85,87,HTC Rezound,ADR6425LVW,HT19WS225311,Verizon,2,11,Y,192.168.1.12,thwacklab12,appthwack4@gmail.com,
23,25,HTC Evo Design 4G,PH44100,HT1C9MB01887,Sprint,2,11,RR,192.168.1.12,thwacklab12,appthwack4@gmail.com,
86,88,Motorola ATRIX 2,MB865,0A3BD52D07022010,AT&T,2,11,GG,192.168.1.12,thwacklab12,appthwack4@gmail.com,
29,31,HTC Thunderbolt 4G,ADR6400L,HT145S000204,Verizon,2,11,BB,192.168.1.12,thwacklab12,appthwack4@gmail.com,
279,294,Dell Venue 8 (3830),Venue 8 3830,DellVenue8000004456,OEM,2,12,R,192.168.1.12,thwacklab12,appthwack4@gmail.com,
16,18,Samsung Transform,SPH-M920,M92017c72446,Sprint,2,12,G,192.168.1.12,thwacklab12,appthwack4@gmail.com,
81,84,HTC Nexus One,Nexus One,HT9CWP803493,OEM,2,12,B,192.168.1.12,thwacklab12,appthwack4@gmail.com,
30,32,Kyocera Echo,M9300,a0000012970165,Sprint,2,12,Y,192.168.1.12,thwacklab12,appthwack4@gmail.com,
236,242,HTC One XL,HTC One X,HT2ADW303892,AT&T,2,12,RR,192.168.1.12,thwacklab12,appthwack4@gmail.com,
17,19,Sony Ericsson Xperia x10a,X10a,CB511LDXLR,AT&T,2,12,GG,192.168.1.12,thwacklab12,appthwack4@gmail.com,
126,128,Samsung Galaxy Fit,GT-S5670,S5670c65e08ff,OEM,2,12,BB,192.168.1.12,thwacklab12,appthwack4@gmail.com,
,,,,,,3,1,R,,,,
,,,,,,3,1,G,,,,
,,,,,,3,1,B,,,,
,,,,,,3,1,Y,,,,
,,,,,,3,1,RR,,,,
,,,,,,3,1,GG,,,,
,,,,,,3,1,BB,,,,
305,321,Samsung Galaxy TabPro 12.2,SM-T900,520519445b101133,OEM,3,2,R,192.168.1.16,thwacklab16,,
,322,HTC One M8,HTC ONE_M8,HT43KWM00231,AT&T,3,2,G,192.168.1.16,thwacklab16,,
,,Samsung Duos,,f194c05f,,3,2,B,192.168.1.16,thwacklab16,appthwack9@gmail.com,
,,,,,,3,2,Y,,,,
,,Samsung Galaxy Star,,,,3,2,RR,,,,
,,,,,,3,2,GG,,,,
,,,,,,3,2,BB,,,,
145,147,Lenovo Thinkpad Tablet 101,,428020441df95d7,OEM,3,3,R,192.168.1.18,thwacklab18,,
306,323,LG G Pad 8.3,LG-V500,LGV500da16e77a,OEM,3,3,G,192.168.1.18,thwacklab18,,
,,ZTE Warp 4G,,99000322641576,Boost,3,3,B,192.168.1.18,thwacklab18,,
,,,,,,3,3,Y,,,,
,,,,,,3,3,RR,,,,
,,,,,,3,3,GG,,,,
,,,,,,3,3,BB,192.168.1.18,thwacklab18,,
,,,,,,3,4,R,192.168.1.18,thwacklab18,appthwack5@gmail.com,
304,320,LG Optimus Dynamic II,LGL39C,LGL39C-1a37eb5,OEM,3,4,G,192.168.1.18,thwacklab18,appthwack5@gmail.com,
303,319,Samsung Galaxy Light,SGH-T399,479023beb4351157,T-Mobile,3,4,B,192.168.1.18,thwacklab18,appthwack5@gmail.com,
,,,,,,3,4,Y,192.168.1.18,thwacklab18,appthwack5@gmail.com,
,,,,,,3,4,RR,192.168.1.18,thwacklab18,appthwack5@gmail.com,
,,,,,,3,4,GG,192.168.1.18,thwacklab18,appthwack5@gmail.com,
294,310,Amazon Kindle Fire HD 8.9 (etsy),KFJWI,B0C91101317200RE,OEM,3,4,BB,192.168.1.18,thwacklab18,appthwack5@gmail.com,
8,8,Amazon Kindle Fire,Amazon Kindle Fire,"""0048000600000001""",OEM,3,5,R,192.168.1.20,thwacklab20,appthwack5@gmail.com,
79,81,ZTE Blade,Orange San Francisco,P729B_ORANGE_UK,Orange,3,5,G,192.168.1.20,thwacklab20,appthwack5@gmail.com,
14,16,Motorola Droid,Droid,040363201801200F,Verizon,3,5,B,192.168.1.20,thwacklab20,appthwack5@gmail.com,
56,58,Samsung Galaxy Mini,GT-S5570,S5570dc4d28f0,OEM,3,5,Y,192.168.1.20,thwacklab20,appthwack5@gmail.com,
291,305,Samsung Galaxy SIII (S3) (etsy),GT-I9300,4df1301312585fe1,OEM,3,5,RR,192.168.1.20,thwacklab20,appthwack5@gmail.com,
293,306,Asus Nexus 7 2.0 (etsy),Nexus 7,05a57b70,OEM,3,5,GG,192.168.1.20,thwacklab20,appthwack5@gmail.com,
292,307,Motorola Droid Razr HD (etsy),DROID RAZR HD,TA26902P7U,Verizon,3,5,BB,192.168.1.20,thwacklab20,appthwack5@gmail.com,
71,73,Motorola Xoom,Xoom,0288504643c07317,OEM,3,6,R,192.168.1.20,thwacklab20,appthwack5@gmail.com,
95,99,HTC Wildfire,ADR6225,HT0BSHR00942,OEM,3,6,G,192.168.1.20,thwacklab20,appthwack5@gmail.com,
32,33,Sanyo Zio,Zio,A0000012B8E4FA,Cricket,3,6,B,192.168.1.20,thwacklab20,appthwack5@gmail.com,
9,4,Samsung Galaxy Y,GT-S5360,0123456789ABCDEF,OEM,3,6,Y,192.168.1.20,thwacklab20,appthwack5@gmail.com,
12,7,LG Optimus S,LS670,A0000028D17366,Sprint,3,6,RR,192.168.1.20,thwacklab20,appthwack5@gmail.com,
89,92,Motorola Photon 4G,MB855,TA22500TBP,Sprint,3,6,GG,192.168.1.20,thwacklab20,appthwack5@gmail.com,
36,37,Motorola Droid Bionic,DROID BIONIC,0146DCF70100E007,Verizon,3,6,BB,192.168.1.20,thwacklab20,appthwack5@gmail.com,
66,68,Samsung Galaxy Tab 7.0,GT-P1010,10106ab6102d,OEM,3,7,R,192.168.1.20,thwacklab20,appthwack5@gmail.com,
230,235,Sony Xperia L,C2104,ZH800062ZT,OEM,3,7,G,192.168.1.20,thwacklab20,appthwack5@gmail.com,
228,232,Kyocera Event,event,2000b81,Virgin,3,7,B,192.168.1.20,thwacklab20,appthwack5@gmail.com,
229,233,Samsung Repp,SCH-R680,R680cf8365fa,US Cellular,3,7,Y,192.168.1.20,thwacklab20,appthwack5@gmail.com,
65,67,Samsung Nexus S 4G,Nexus S 4G,34345A1A750000EC,Sprint,3,7,RR,192.168.1.20,thwacklab20,appthwack5@gmail.com,
52,55,Samsung Galaxy Ace,GT-S5830L,S5830bc1368d8,OEM,3,7,GG,192.168.1.20,thwacklab20,appthwack5@gmail.com,
68,70,Motorola Atrix 4G,MB860,TA2070G32C,AT&T,3,7,BB,192.168.1.20,thwacklab20,appthwack5@gmail.com,
40,42,Samsung Galaxy Tab 2 10.1,GT-P5113,c1607c1011fb12f,OEM,3,8,R,192.168.1.20,thwacklab20,appthwack5@gmail.com,
238,241,Samsung Galaxy SIII (S3),SGH-T999,151c98fb,T-Mobile,3,8,G,192.168.1.20,thwacklab20,appthwack5@gmail.com,
234,238,Kyocera Hydro,C5170,A0000027E348AB,Boost,3,8,B,192.168.1.20,thwacklab20,appthwack5@gmail.com,
235,240,Samsung Illusion,SCH-I110,3247901340D2D530,Verizon,3,8,Y,192.168.1.20,thwacklab20,appthwack5@gmail.com,
233,237,Kyocera Rise,C5155,671bc6b8,Virgin,3,8,RR,192.168.1.20,thwacklab20,appthwack5@gmail.com,
232,236,Huawei Fusion 2,Huawei-U8665,24DBAC8D2292,AT&T,3,8,GG,192.168.1.20,thwacklab20,appthwack5@gmail.com,
239,244,Sony Xperia U,ST25i,YT9004BWAN,OEM,3,8,BB,192.168.1.20,thwacklab20,appthwack5@gmail.com,"Something wrong with hub, light wont turn on"
148,149,Barnes & Noble Nook HD,BNTV400,3024850392834113,OEM,3,9,R,192.168.1.19,thwacklab19,appthwack6@gmail.com,
231,234,LG Optimus L9,LG-P769,29260006000000010914A14517014001,T-Mobile,3,9,G,192.168.1.19,thwacklab19,appthwack6@gmail.com,
,,,,,,3,9,B,,,appthwack9@gmail.com,
10,2,Samsung Galaxy S2 Skyrocket,Samsung-SGH-I727,d27131f4,AT&T,3,9,Y,192.168.1.19,thwacklab19,appthwack6@gmail.com,
69,71,HTC Droid Incredible 2,ADR6350,HT18PMA15990,OEM,3,9,RR,192.168.1.19,thwacklab19,appthwack6@gmail.com,
78,80,HTC Desire,USCCADR6275US,HT0CCHM02824,US Cellular,3,9,GG,192.168.1.19,thwacklab19,appthwack6@gmail.com,
77,79,Asus Nexus 7,Nexus 7,015d14fec1241010,OEM,3,9,BB,192.168.1.19,thwacklab19,appthwack6@gmail.com,
166,168,Asus EeePad Transformer 300T,ASUS Transformer Pad TF300T,C7OKCT204301,OEM,3,10,R,192.168.1.19,thwacklab19,appthwack6@gmail.com,
105,107,Dell Streak 5,Dell Streak,11954000124433,OEM,3,10,G,192.168.1.19,thwacklab19,appthwack6@gmail.com,
224,228,HTC First,HTC First,HT33WLE03284,AT&T,3,10,B,192.168.1.19,thwacklab19,appthwack6@gmail.com,
208,210,Samsung Gem,SCH-I100,I1004607241b,OEM,3,10,Y,192.168.1.19,thwacklab19,appthwack6@gmail.com,
219,223,HTC One VX,HTC One VX,HT333W0A0098,AT&T,3,10,RR,192.168.1.19,thwacklab19,appthwack6@gmail.com,
196,199,HTC Desire HD (Web),HTC Desire HD,SH19DTZ00109,OEM,3,10,GG,192.168.1.19,thwacklab19,appthwack6@gmail.com,
220,224,HTC One,HTC One,HT34GW913402,OEM,3,10,BB,192.168.1.19,thwacklab19,appthwack6@gmail.com,
149,150,Barnes & Noble Nook HD+,BNTV600,3024910279004304,OEM,3,11,R,192.168.1.19,thwacklab19,appthwack6@gmail.com,
193,200,Samsung Galaxy Ace (Web),GT-S5830i,0123456789ABCDEF,OEM,3,11,G,192.168.1.19,thwacklab19,appthwack6@gmail.com,
195,198,Samsung Galaxy S (Web),GT-I9000T,303405E2F06C00EC,OEM,3,11,B,192.168.1.19,thwacklab19,appthwack6@gmail.com,
191,195,Samsung Galaxy SII (S2) (Web),SCH-R760,464119E67F2C962F,US Cellular,3,11,Y,192.168.1.19,thwacklab19,appthwack6@gmail.com,
200,196,Samsung Galaxy Nexus (Web),Galaxy Nexus,01467D530E01000A,Verizon,3,11,RR,192.168.1.19,thwacklab19,appthwack6@gmail.com,
199,203,Nexus 7 (Asus) (Web),Nexus 7,015d2994cc07f609,OEM,3,11,GG,192.168.1.19,thwacklab19,appthwack6@gmail.com,
221,225,HTC Salsa,HTC Salsa C510e,HT24YTW05486,OEM,3,11,BB,192.168.1.19,thwacklab19,appthwack6@gmail.com,
273,288,Asus MeMo Pad FHD 10,ME302C,MedfieldE9D3C799,OEM,3,12,R,192.168.1.19,thwacklab19,appthwack6@gmail.com,
119,123,HTC Desire S,HTC Desire S S510e,SH197TJ01761,OEM,3,12,G,192.168.1.19,thwacklab19,appthwack6@gmail.com,
60,62,Samsung Galaxy SIII (S3),GT-I9300,4df193075c8b5fa7,OEM,3,12,B,192.168.1.19,thwacklab19,appthwack6@gmail.com,
155,157,Samsung Galaxy Note II,GT-N7100,4df1b4ec2e48af53,OEM,3,12,Y,192.168.1.19,thwacklab19,appthwack6@gmail.com,
51,53,HTC One S,HTC One S,HT24GW406822,T-Mobile,3,12,RR,192.168.1.19,thwacklab19,appthwack6@gmail.com,
192,194,Samsung Galaxy Note Tab (Web),SAMSUNG-SGH-I717,763e1552,AT&T,3,12,GG,192.168.1.19,thwacklab19,appthwack6@gmail.com,
197,197,HTC Evo Shift 4G (Web),PG06100,HT1BSHV07638,Sprint,3,12,BB,192.168.1.19,thwacklab19,appthwack6@gmail.com,
,,,,,,4,1,R,,,,
,,,,,,4,1,G,,,,
,,,,,,4,1,B,,,,
,,,,,,4,1,Y,,,,
,,,,,,4,1,RR,,,,
,,,,,,4,1,GG,,,,
,,,,,,4,1,BB,,,,
,,,,,,4,2,R,,,,
,,,,,,4,2,G,,,,
,,,,,,4,2,B,,,,
,,,,,,4,2,Y,,,,
,,,,,,4,2,RR,,,,
,,,,,,4,2,GG,,,,
,,,,,,4,2,BB,,,,
,,,,,,4,3,R,,,,
,,,,,,4,3,G,,,,
,,,,,,4,3,B,,,,
,,,,,,4,3,Y,,,,
,,,,,,4,3,RR,,,,
,,,,,,4,3,GG,,,,
,,,,,,4,3,BB,,,,
,,,,,,4,4,R,,,,
,,,,,,4,4,G,,,,
,,,,,,4,4,B,,,,
,,,,,,4,4,Y,,,,
,,,,,,4,4,RR,,,,
,,,,,,4,4,GG,,,,
,,,,,,4,4,BB,,,,
,,,,,,4,5,R,,,,
,,,,,,4,5,G,,,,
,,,,,,4,5,B,,,,
,,,,,,4,5,Y,,,,
,,,,,,4,5,RR,,,,
,,,,,,4,5,GG,,,,
,,,,,,4,5,BB,,,,
,,Samsung Galaxy Tab S 10.5,SM-T800,,OEM,4,6,R,192.168.1.24,thwacklab24,appthwack11@gmail.com,
,,Amazon Fire HD6,,,OEM,4,6,G,192.168.1.24,thwacklab24,,
,,,,,,4,6,B,,,,
,,,,,,4,6,Y,,,,
,,,,,,4,6,RR,,,,
,,,,,,4,6,GG,,,,
,,,,,,4,6,BB,,,,
326,350,Samsung Galaxy Tab 4 7.0,SM-T230NU,300023962da21100,OEM,4,7,R,192.168.1.33,thwacklab33,,
325,348,LG G Pro 2,LG-D838,0881d610d75f8ed9,OEM,4,7,G,192.168.1.33,thwacklab33,,
328,352,Sony Z1 Compact,D5503,CB5A1YQBA8,OEM,4,7,B,192.168.1.33,thwacklab33,,
329,353,LG Optimus L70,LGMS323,LGMS3232a155ef,MetroPCS,4,7,Y,192.168.1.33,thwacklab33,,
330,354,LG Lucid 3,VS876,VS8765a511280,Verizon,4,7,RR,192.168.1.33,thwacklab33,,
331,355,Sony Xperia M2,D2305,ZH8002TMD8,OEM,4,7,GG,192.168.1.33,thwacklab33,,
332,356,LG Optimus F6,LG-D500,LG-D500-4375f99,T-Mobile,4,7,BB,192.168.1.33,thwacklab33,,
,377,Blu Advance,BLU ADVANCE 4.0,0123456789ABCDEF,OEM,4,8,R,192.168.1.33,thwacklab33,appthwack10@gmail.com,
334,358,Nokia X,Nokia_X,dcb2d424,OEM,4,8,G,192.168.1.33,thwacklab33,appthwack10@gmail.com,
333,357,Nokia XL,Nokia_XL,39aedcf9,OEM,4,8,B,192.168.1.33,thwacklab33,appthwack10@gmail.com,
320,347,Sony Xperia Z1S 4G,C6916,CB5A1XSBAB,OEM,4,8,Y,192.168.1.33,thwacklab33,appthwack10@gmail.com,
319,337,Motorola Moto E,Moto E,ZX1B223D4D,OEM,4,8,RR,192.168.1.33,thwacklab33,appthwack10@gmail.com,
321,346,LG G Flex,LG-D950,069335f72071ade6,OEM,4,8,GG,192.168.1.33,thwacklab33,appthwack10@gmail.com,
335,359,Nabi Dream Tab,DMTAB-IN08A,DT08A00006CF6140513,OEM,4,8,BB,192.168.1.33,thwacklab33,appthwack10@gmail.com,nabi password: zxcv6789
327,351,Samsung Galaxy Tab 4 10.1,SM-T530NU,dd9f0ff602d5eee6,OEM,4,9,R,192.168.1.33,thwacklab33,appthwack10@gmail.com,
,373,Amazon Fire Phone,SD4930UR,B0F10702428203UF,OEM,4,9,G,192.168.1.25,thwacklab25,appthwack11@gmail.com,
343,368,Acer Iconia Tab 8,A1-840FHD,428002527412,OEM,4,9,B,192.168.1.25,thwacklab25,appthwack11@gmail.com,
344,369,LG G3,LG-D855,LGD8553215e035,OEM,4,9,Y,192.168.1.25,thwacklab25,appthwack11@gmail.com,cant reboot
345,370,Dell Venue 8 (3840),Venue8 3840,MedfieldEC30074D,OEM,4,9,RR,192.168.1.25,thwacklab25,appthwack11@gmail.com,
346,371,Samsung Galaxy Tab S 8.4,SM-T700,428002527412,OEM,4,9,GG,192.168.1.25,thwacklab25,appthwack11@gmail.com,
347,372,Asus Memo Pad 8,K011,E5OKCY695921,OEM,4,9,BB,192.168.1.25,thwacklab25,appthwack11@gmail.com,
318,335,LG G Pad LTE,VK810 4G,VK810_4G-08b2402792dec92c,Verizon,4,10,R,192.168.1.25,thwacklab25,,USB Mode: Network Connection (Ethernet)
348,374,LG G2,LG-D800,016342695489d42d,AT&T,4,10,G,192.168.1.25,thwacklab25,,
349,375,ASUS Memo Pad 7,K013,E5OKCY591184,OEM,4,10,B,192.168.1.25,thwacklab25,,
350,376,LG G2 Mini,LG-D620,LGD620a0533814,OEM,4,10,Y,192.168.1.25,thwacklab25,,
323,344,Samsung Galaxy Tab 4 8.0,SM-T330NU,9875550702b78da5,OEM,4,10,RR,192.168.1.25,thwacklab25,,
322,345,Sony Xperia T2 Ultra Dual,D5322,YT910RB99L,OEM,4,10,GG,192.168.1.25,thwacklab25,,
324,343,Fuhu NABI 7.0,FUHU_NABI2-NV7A_0123456789ABCDEF,0123456789ABCDEF,OEM,4,10,BB,192.168.1.25,thwacklab25,,
,,,,,,4,11,R,,,,
338,363,Nexus 7 (Beta),Nexus 7,08d9bb9f,OEM,4,11,G,192.168.1.13,thwacklab13,appthwack9@gmail.com,
,,,,,,4,11,B,,,,
,,,,,,4,11,Y,,,,
,,,,,,4,11,RR,,,,
,,,,,,4,11,GG,,,,
,,,,,,4,11,BB,,,,
74,76,Barnes & Noble Nook Color,,"""2011220154392002""",OEM,4,12,R,192.168.1.33,thwacklab33,appthwack8@gmail.com,
,,,,,,4,12,G,,,,
,,,,,,4,12,B,,,,
,,,,,,4,12,Y,,,,
,,,,,,4,12,RR,,,,
6,12,Samsung Galaxy Nexus,Galaxy Nexus (I9250),0A3C292A0500B013,,4,12,GG,192.168.1.13,thwacklab13,,
,,,,,,4,12,BB,,,,
28,30,"Samsung Galaxy Tab 2 7""",GT-P3113,c0808e81914a22f,OEM,MISC,X,R,192.168.1.12,thwacklab12,,
240,245,Lenovo IdeaTab,IdeaTab A2107A-F,0123456789ABCDEF,OEM,MISC,X,G,192.168.1.12,thwacklab12,,
101,103,Sony Ericsson Xperia Mini Pro,U20i,43423531314E5654535A,OEM,MISC,X,B,192.168.1.13,thwacklab13,,
121,122,Motorola Xoom2 Xyboard,XOOM 2 me,014FAF541300700E,OEM,MISC,X,Y,192.168.1.16,thwacklab16,,
164,166,Vizio Via Tablet,VTAB1008,TFCILAAM2703503,OEM,MISC,X,W,192.168.1.16,thwacklab16,,
153,155,Motorola Droid Razr M,DROID RAZR M,99000200945545,Verizon,MISC,X,RR,192.168.1.16,thwacklab16,,
163,165,Motorola Droid Razr HD,DROID RAZR HD,TA64803K76,Verizon,MISC,X,GG,192.168.1.16,thwacklab16,,
146,148,Samsung Galaxy Note 10.1 Tab,GT-N8013,4107de112547112d,OEM,MISC,X,BB,192.168.1.18,thwacklab18,,
268,285,Amazon Kindle Fire HDX 7,kindle fire hdx 7'',D0FBA0A0340700K8,OEM,MISC,X,YY,192.168.1.18,thwacklab18,,
278,293,"Amazon Kindle Fire HDX 8.9""",Kindle Fire 8.9,B0180706342200HR,OEM,MISC,X,WW,192.168.1.22,thwacklab22,,
,,,,,,,,,,,,
,,,,,,,,,,,,
,,,,,,,,,,,,
,,,,,,,,,,,,
238,241,Samsung Galaxy SIII (S3),SGH-T999,151c98fb,T-Mobile,RETIRED,RETIRED,RETIRED,RETIRED,RETIRED,appthwack5@gmail.com,RETIRED